…
```
## [1] "Date"
```

##The mean total number of steps taken per day

Total number of steps taken per day


```r
group_by(.data = data, date) %>% summarise(Total = sum(steps, na.rm = TRUE))
```

```
## # A tibble: 61 x 2
##    date       Total
##    <date>     <int>
##  1 2012-10-01     0
##  2 2012-10-02   126
##  3 2012-10-03 11352
##  4 2012-10-04 12116
##  5 2012-10-05 13294
##  6 2012-10-06 15420
##  7 2012-10-07 11015
##  8 2012-10-08     0
##  9 2012-10-09 12811
## 10 2012-10-10  9900
## # ... with 51 more rows
```
…
Mean and Median of the total number of steps taken per day


```r
group_by(.data = data, date) %>% summarise(Mean = mean(x = steps, na.rm = TRUE), Median = median(x = steps, na.rm = TRUE))
```

```
## # A tibble: 61 x 3
##    date          Mean Median
##    <date>       <dbl>  <dbl>
##  1 2012-10-01 NaN        NA 
##  2 2012-10-02   0.438     0.
##  3 2012-10-03  39.4       0.
##  4 2012-10-04  42.1       0.
##  5 2012-10-05  46.2       0.
##  6 2012-10-06  53.5       0.
##  7 2012-10-07  38.2       0.
##  8 2012-10-08 NaN        NA 
##  9 2012-10-09  44.5       0.
## 10 2012-10-10  34.4       0.
## # ... with 51 more rows
```
…
```
## [1] 17568     3
```

Mean and Median of the total number of steps taken per day in the new dataset


```r
group_by(.data = new_data, date) %>% summarise(Mean = mean(x = steps), Median = median(x = steps))
```

```
## # A tibble: 61 x 3
##    date         Mean Median
##    <date>      <dbl>  <dbl>
##  1 2012-10-01 37.4     34.1
##  2 2012-10-02  0.438    0. 
##  3 2012-10-03 39.4      0. 
##  4 2012-10-04 42.1      0. 
##  5 2012-10-05 46.2      0. 
##  6 2012-10-06 53.5      0. 
##  7 2012-10-07 38.2      0. 
##  8 2012-10-08 37.4     34.1
##  9 2012-10-09 44.5      0. 
## 10 2012-10-10 34.4      0. 
## # ... with 51 more rows
```
…
##Differences in activity patterns between weekdays and weekends  

Creating a new factor variable in the dataset  


```r
weekday <- c("Monday", "Tuesday", "Wednesday", "Thursday", "Friday")
mutate(.data = new_data, Day = as.factor(x = ifelse(test = weekdays(date) %in% weekday, yes = "weekday", no = "weekend")))
```

```
## # A tibble: 17,568 x 4
## # Groups:   interval [288]
##     steps date       interval Day    
##     <dbl> <date>        <int> <fct>  
##  1 1.72   2012-10-01        0 weekday
##  2 0.340  2012-10-01        5 weekday
##  3 0.132  2012-10-01       10 weekday
##  4 0.151  2012-10-01       15 weekday
##  5 0.0755 2012-10-01       20 weekday
##  6 2.09   2012-10-01       25 weekday
##  7 0.528  2012-10-01       30 weekday
##  8 0.868  2012-10-01       35 weekday
##  9 0.     2012-10-01       40 weekday
## 10 1.47   2012-10-01       45 weekday
## # ... with 17,558 more rows
```
…
